if r'.*e_$' then guess(d)
if r'.*e_$' then guess(r)
if r'.*e_$' then guess(s)
if r'.*e_$' then guess(n)
if r'.*v_$' then guess(e)
if r'.*es_$' then guess(t)
if r'.*e_t$' then guess(s)
if r'.*i_e$' then guess(t)
if r'.*i_e$' then guess(n)
if r'.*i_e$' then guess(z)
if r'.*i_e$' then guess(v)
if r'.*i_e$' then guess(k)
if r'.*i_e$' then guess(d)
if r'.*i_e$' then guess(s)
if r'.*i_e$' then guess(c)
if r'.*i_e$' then guess(o)
if r'.*a_e$' then guess(t)
if r'.*a_e$' then guess(g)
if r'.*a_e$' then guess(r)
if r'.*a_e$' then guess(p)
if r'.*a_e$' then guess(m)
if r'.*a_e$' then guess(c)
if r'.*a_e$' then guess(d)
if r'.*a_e$' then guess(v)
if r'.*a_e$' then guess(s)
if r'.*a_e$' then guess(n)
if r'.*a_e$' then guess(z)
if r'.*__er$' then guess(t)
if r'.*__er$' then guess(d)
if r'.*o_t$' then guess(s)
if r'.*o_t$' then guess(r)
if r'.*o_t$' then guess(o)
if r'.*o_t$' then guess(u)
if r'.*i_k$' then guess(c)
if r'.*i_k$' then guess(n)
if r'.*i_k$' then guess(s)
if r'.*i_k$' then guess(r)
if r'.*i_k$' then guess(l)
if r'.*i_k$' then guess(a)
if r'.*i_k$' then guess(e)
if r'.*il_$' then guess(t)
if r'.*il_$' then guess(y)
if r'.*il_$' then guess(d)
if r'.*t_on.*' then guess(i)
if r'.*ti_n.*' then guess(o)
if r'.*i__.*' then guess(n)
if r'.*in_.*' then guess(e)
if r'.*in_.*' then guess(g)
if r'.*i_g.*' then guess(n)
if r'.*_ng.*' then guess(i)
if r'.*_ue.*' then guess(q)
if r'.*_ui.*' then guess(q)
if r'.*_ua.*' then guess(q)
if r'.*r_e.*' then guess(g)
if r'.*r_e.*' then guess(c)
if r'.*e_t.*' then guess(n)
if r'.*ea_.*' then guess(t)
if r'.*ea_.*' then guess(d)
if r'.*ea_.*' then guess(r)
if r'.*st_.*' then guess(r)
if r'.*s_r.*' then guess(t)
if r'.*t_h.*' then guess(c)
if r'.*ar_' then guess(d)
if r'.*ar_' then guess(y)
if r'.*ar_' then guess(e)
if r'.*ou_h.*' then guess(g)
if r'.*o_gh.*' then guess(u)
if r'.*oug_.*' then guess(h)
if r'.*_ugh.*' then guess(o)
if r'.*i_ht.*' then guess(g)
if r'.*_ght.*' then guess(i)
if r'.*_ght.*' then guess(u)
if r'.*ig_t.*' then guess(h)
if r'.*igh_.*' then guess(t)
if r'.*q_.*' then guess(u)
if r'.*t_.*' then guess(h)
if r'.*s_.*' then guess(h)
if r'.*o_.*' then guess(n)
if r'.*o_.*' then guess(r)
if r'.*o_.*' then guess(t)
if r'.*o_.*' then guess(w)
if r'.*o_.*' then guess(m)
if r'.*o_.*' then guess(d)
if r'.*o_.*' then guess(p)
if r'.*o_.*' then guess(k)
if r'.*t_.*' then guess(h)
if r'.*h_.*' then guess(e)
if r'.*a_.*' then guess(n)
if r'.*r_.*' then guess(e)
if r'.*i_.*' then guess(n)
if r'.*a_.*' then guess(t)
if r'.*n_.*' then guess(d)
if r'.*s_.*' then guess(t)
if r'.*t_.*' then guess(e)
if r'.*t_.*' then guess(i)
if r'.*h_.*' then guess(i)
if r'.*a_.*' then guess(s)
if r'.*t_.*' then guess(o)
if r'.*_h.*' then guess(t)
if r'.*_e.*' then guess(h)
if r'.*_n.*' then guess(a)
if r'.*_e.*' then guess(r)
if r'.*_n.*' then guess(i)
if r'.*_t.*' then guess(a)
if r'.*_d.*' then guess(n)
if r'.*_t.*' then guess(s)
if r'.*_e.*' then guess(t)
if r'.*_i.*' then guess(t)
if r'.*_i.*' then guess(h)
if r'.*_s.*' then guess(a)
if r'.*_o.*' then guess(t)
if r'.*o_.*' then guess(f)
if r'.*_f.*' then guess(o)
if r'.*c_.*' then guess(o)
if r'.*c_.*' then guess(h)
if r'.*c_.*' then guess(e)
if r'.*c_.*' then guess(a)
if r'.*c_.*' then guess(k)
if r'.*c_.*' then guess(t)
if r'.*c_.*' then guess(i)
if r'.*c_.*' then guess(r)
if r'.*c_.*' then guess(u)
if r'.*c_.*' then guess(l)
if r'^l_.*' then mostCommonVowel
if r'^_r.*' then guess(p)
if r'^_r.*' then guess(t)
if r'^_r.*' then guess(c)
if r'^_r.*' then guess(b)
if r'^_r.*' then guess(g)
if r'^_r.*' then guess(f)
if r'^_r.*' then guess(a)
if r'^_n.*' then guess(i)
if r'^_n.*' then guess(a)
if r'^_n.*' then guess(e)
if r'^_n.*' then guess(s)
if r'^_n.*' then guess(u)
if r'^_n.*' then guess(k)
if r'^u_.*' then guess(n)
if r'^.ett.*' then guess(l)
if r'^.ett.*' then guess(b)
if r'^.ett.*' then guess(s)
if r'^.ett.*' then guess(f)
if r'.*\([^e^a^o^i^u]\)\1' then mostCommonVowel
if r'^__*$' then mostCommonVowel
if r'^__*$' then guess(y)
mostCommonLetter
